<?xml version="1.0" encoding="UTF-8" standalone="no"?>
<!-- Created with Inkscape (http://www.inkscape.org/) -->
<svg
   xmlns:dc="http://purl.org/dc/elements/1.1/"
   xmlns:cc="http://creativecommons.org/ns#"
   xmlns:rdf="http://www.w3.org/1999/02/22-rdf-syntax-ns#"
   xmlns:svg="http://www.w3.org/2000/svg"
   xmlns="http://www.w3.org/2000/svg"
   xmlns:xlink="http://www.w3.org/1999/xlink"
   xmlns:sodipodi="http://sodipodi.sourceforge.net/DTD/sodipodi-0.dtd"
   xmlns:inkscape="http://www.inkscape.org/namespaces/inkscape"
   version="1.0"
   width="254"
   height="273"
   id="svg2"
   sodipodi:version="0.32"
   inkscape:version="0.46"
   sodipodi:docname="background.svgz"
   sodipodi:docbase="/home/ivan/Documents/Art/Plasma/Slim Glow/Process/Widget Background"
   inkscape:output_extension="org.inkscape.output.svgz.inkscape">
  <sodipodi:namedview
     inkscape:window-height="814"
     inkscape:window-width="1430"
     inkscape:pageshadow="2"
     inkscape:pageopacity="0.0"
     guidetolerance="10.0"
     gridtolerance="10.0"
     objecttolerance="10.0"
     borderopacity="1.0"
     bordercolor="#666666"
     pagecolor="#ffffff"
     id="base"
     inkscape:zoom="2.3369963"
     inkscape:cx="75.652037"
     inkscape:cy="136.5"
     inkscape:window-x="0"
     inkscape:window-y="34"
     inkscape:current-layer="svg2"
     showgrid="false">
    <inkscape:grid
       enabled="true"
       visible="true"
       id="grid2893"
       type="xygrid" />
  </sodipodi:namedview>
  <metadata
     id="metadata2480">
    <rdf:RDF>
      <cc:Work
         rdf:about="">
        <dc:format>image/svg+xml</dc:format>
        <dc:type
           rdf:resource="http://purl.org/dc/dcmitype/StillImage" />
      </cc:Work>
      <cc:Work
         rdf:about="">
        <dc:format>image/svg+xml</dc:format>
        <dc:type
           rdf:resource="http://purl.org/dc/dcmitype/StillImage" />
        <dc:title>Widget Background</dc:title>
        <dc:creator>
          <cc:Agent>
            <dc:title>Ivan Čukić</dc:title>
          </cc:Agent>
        </dc:creator>
        <cc:license
           rdf:resource="http://creativecommons.org/licenses/GPL/2.0/" />
      </cc:Work>
      <cc:License
         rdf:about="http://creativecommons.org/licenses/GPL/2.0/">
        <cc:permits
           rdf:resource="http://web.resource.org/cc/Reproduction" />
        <cc:permits
           rdf:resource="http://web.resource.org/cc/Distribution" />
        <cc:requires
           rdf:resource="http://web.resource.org/cc/Notice" />
        <cc:permits
           rdf:resource="http://web.resource.org/cc/DerivativeWorks" />
        <cc:requires
           rdf:resource="http://web.resource.org/cc/ShareAlike" />
        <cc:requires
           rdf:resource="http://web.resource.org/cc/SourceCode" />
      </cc:License>
    </rdf:RDF>
  </metadata>
  <defs
     id="defs5">
    <inkscape:perspective
       id="perspective17"
       inkscape:persp3d-origin="21 : 16.666667 : 1"
       inkscape:vp_z="42 : 25 : 1"
       inkscape:vp_y="0 : 1000 : 0"
       inkscape:vp_x="0 : 25 : 1"
       sodipodi:type="inkscape:persp3d" />
  </defs>
  <rect
     y="0"
     x="0"
     height="273"
     width="254"
     id="rect2754"
     style="opacity:1;fill:#00316e;fill-opacity:1;stroke:none;stroke-width:3;stroke-linecap:butt;stroke-miterlimit:4;stroke-dasharray:none;stroke-dashoffset:0;stroke-opacity:1" />
  <image
     inkscape:label="#image2238"
     xlink:href="data:image/png;base64,iVBORw0KGgoAAAANSUhEUgAAAMoAAAAZCAYAAABwz7EpAAAAAXNSR0IArs4c6QAAAAZiS0dEAP8A /wD/oL2nkwAAAAlwSFlzAAAJOQAACTkBXd2zJwAAAAd0SU1FB9gDGQ0oL6ZcVocAAAC0SURBVHja 7doxDoJAEIbRfwjH8PzekE5dC4MxBBc0hsK8V1NN/NxZsaZpagG6BiOAvqrKWFVJktYcLLAMZPYM parEAotAnqFsPQC4o4BQQChwoHEYtAKbF/zmpy6weoFQ4Kg7SpKzMcD2HeWUxJtGeK+NSa7LeMwF HoG8rl4XgUA/ljkUkfzxem0En58gVi/4Ipq1UPCFIZAdJ4oPCaycKDczgT6hwM5Q/CkSNtYwoYBQ 4DfupPUn4CZgeycAAAAASUVORK5CYII= "
     width="202"
     height="25"
     id="bottom"
     x="27"
     y="248" />
  <image
     inkscape:label="#image2295"
     xlink:href="data:image/png;base64,iVBORw0KGgoAAAANSUhEUgAAABsAAAAZCAYAAADAHFVeAAAAAXNSR0IArs4c6QAAAAZiS0dEAP8A /wD/oL2nkwAAAAlwSFlzAAAJOQAACTkBXd2zJwAAAAd0SU1FB9gDGQ0qOWC+gVQAAAF5SURBVEjH rZQxTkQhEIa/gd1saWzUSxhrb6CtpeewNRY23sGzWHoAPYXRG+zmgcXCOpkMPJ5KMpnHAPPxw/AE IOcsgLBvQVlUtlL2BNyW+Wy3W6ZpotVyzlAWHmIKWPvVMPFPFjQROahwN+P0tb3rwRDCEHTVAEkD Uu3Nwurue62nzLNU/BfwoWEj6kI50zwATOb7VU9er9fzd6cqRlRMZqoyAmfAC3Bcc0zTxG63W3yM PWWp2CfwoBfEGNlsNs0jFfMeRCmzCmND4TNwZROnlMg5H3yvGj2FyWyivuK7Mn7tPYcYY1eZjtu7 swqD8jfAI3A0WyCdQqlAMck9fwrcA5flexGsVZ3BgKwJcAJcAOcVLI0fp6euBw1GvbfOLZBesVAK pfU0gvJiTseHiUhW6lpA+/8U5W3l7tN2Zf0AcXYaGkcszlxp3tkCYM9YpKwD7IG9MYaUzQBbicWb NwxzgB60FVsOG4Q2+7+CdaDd6/kTbBD8/7AR+DcdjpolfQOecgAAAABJRU5ErkJggg== "
     width="27"
     height="25"
     id="bottomleft"
     x="0"
     y="248" />
  <image
     inkscape:label="#image2409"
     xlink:href="data:image/png;base64,iVBORw0KGgoAAAANSUhEUgAAABkAAAAZCAYAAADE6YVjAAAAAXNSR0IArs4c6QAAAAZiS0dEAP8A /wD/oL2nkwAAAAlwSFlzAAAJOQAACTkBXd2zJwAAAAd0SU1FB9gDGQ0oEWc9SywAAAFnSURBVEjH rZY9UgQhEEYfPczsJbyGJ/BCJt7DxGwDj2Bk4AlMNfAnMTaxymiDXQETnMLeBsZ1u6qLGoLv8dEN jNtsNolGrFYrRKScOgXegS+VAYhFppwInXDOlZ874LMQmIVaIT2AgrwAWwNQjnoOr0R+r0D21vBo uNgTVQtNTSfeewsSK6AqsAoZhkE7CcB9FoiNuqRFNRERxnHU01fAWwGIDSfzVgF4a4uMbXoCLlWL mu1qOfEigojgnJtHFTvgPHdVMIS7NfHTNLVq/wFcZCfhEBe9c3ILnAF3GVBmbBQ/lfWwarIFnoE1 cFOIhYqTrosfyDXwCjzkE71THRQULFY6zHQB4FJKJ5UCxgVptq+G+HyDosT1GDvngxqgBmnBLEh1 m0pI6NxFvdPdvepbTqgU1gTUXJROWCBmvR1dgIawULRbaAsSKxD+K15CrHe6+T78BWA5OZqw5aT1 M3GwuHlBHkPQim9PzAx2BbH4kAAAAABJRU5ErkJggg== "
     width="25"
     height="25"
     id="bottomright"
     x="229"
     y="248" />
  <image
     inkscape:label="#image2466"
     xlink:href="data:image/png;base64,iVBORw0KGgoAAAANSUhEUgAAAMoAAADWCAYAAACQcR1IAAAAAXNSR0IArs4c6QAAAAZiS0dEAP8A /wD/oL2nkwAAAAlwSFlzAAAJOQAACTkBXd2zJwAAAAd0SU1FB9gDGQ0nNdymszIAAAInSURBVHja 7d1BqsJAEEXRrpD9bzFLKQciMZpUoJseKOfMxNmHSzU85Me2bdmAUxHRMrOtEXH4IlM3iOPz8/Ie iEjg/Fgs/ixQx5KZz1BcEqi5KCAUEAoIBYQCP+ZrcAR2rz5cFPD0AqGAUEAoIBQQCggFOGdwhILB ETy9QCggFBAKCAWEAkIBhALDLPNQsMyDpxcIBYQCQgGhgFBAKEDN4AgFgyN4eoFQQCggFBAKCAWE AggFhq2t7esjcGSZB08vEAoIBYQCQgGhgFCAmp8CQ8HgCJ5eIBQQCggFhAJCAaEANYMj3IgIFwU8 vUAoIBQQCggFhAJCAYQC/Szz4KKAUEAoIBQQCggFhAIIBboZHMFFAaGAUEAoIBQQCggFEAoIBWay zIOLAkIBoYBQQCggFBAKIBToZnAEFwXG+ffZ4KKAUEAoIBQQCggFhAJcs8zDDYMjeHqBUEAoIBQQ CggFhAJcMzjCDYMjeHqBUEAoIBQQCggFhAIIBYZY5sFFAaGAUEAoIBQQCggFEAp0MziCiwJCAaGA UEAoIBQQCiAU6GZwBBcFhAJCAaGAUEAoIBRAKCAUmMkyDy4KCAWEAkIBoYBQQCiAUKCbwRFcFBAK CAWEAkIBoYBQAKFAN4MjuCggFBAKCAWEAkIBoQBCAaHATJZ5cFFAKCAUEAoIBYQCQgGEAkKBmSzz 4KKAUEAoIBQQCggFhAIIBboZHMFFAaGAUEAoIBT4Pw/GEB3KteqakQAAAABJRU5ErkJggg== "
     width="202"
     height="214"
     id="center"
     x="27"
     y="34" />
  <image
     inkscape:label="#image2523"
     xlink:href="data:image/png;base64,iVBORw0KGgoAAAANSUhEUgAAABsAAADWCAYAAAAgovk/AAAAAXNSR0IArs4c6QAAAAZiS0dEAP8A /wD/oL2nkwAAAAlwSFlzAAAJOQAACTkBXd2zJwAAAAd0SU1FB9gDGQ0pGun0o+UAAAcSSURBVHja zVzbTis7DPVkptOhhSJA4okX/uD8zJH4Yz6FBySEEAhBO/F+OJPKzc7FcZzqVKo2m8t4nNjLy8uZ dojYAUAHAAYAzMvLy/D6+jp+fHxMn5+f27e3t93X19fN9/f33X6/v/v9/b19enr69/Hx8R9YXs/P z/D+/g7TNMFms4FxHGEcR1itVjAMAxhjoOs6MJB4/fz8AACAtRaXf8Fa+9fvISIAAHRdB4gIXded vN3PksYAAPb7PVhru3meYZ5nwP9e0d+nBvwbyhrz/gDneQ5eyH/7XsOyTywjbikTv5P8P9uYe1lr k2voe+UbNgwDQU9B8DIlXpVe3L8nAwovrqNJY/M8o++VcAXLPYvtFU1c/2v6psYQGr8ke5b0TmTM 7RfnwhxDLM/6vmcvLzUaugH2MhpjkOtB1Z4ZY2j4W/U9kwRJqsREjaWCI5XY7vuxnxd51nUdhu48 lcixpE6mgDEGJWCsDsSqxpxHyzJiaWCwjK1Wq+MSUsMxg6E9rEKQlGfFyxgLe1pe/NAOGaqCK7qc UthiVWpKfmrwUR2uio3tdjv0l29B/WTouwZCjCDcOiaJRuQmeM6wiH5ba9FHEGmumYKlwubY6BCE eNecFqCGdyqMuFlSh7wLUbgibPShylG5xTsMMTA//DWSms2U2Z5N04SueEpqV7NozNFuCf2mF2vT Uw/DgEThSZKdXHdTXKk5iV1Ev0Ph77yqSWw1II4tZZExP7lr8NEURmKWDXPVgpJOpq2cFNOxfA9T 8VPUU1POr+ZZqvMMhT5XqmAhiJbwYphBYV2rpNrF5JA/d2FxUo/jqCKeuRtQ4SCxJPa/bzQMcZfT FOSYQ34s4ffN+jNx6LvEpglO6VoTDuIntZOUOF4V0QIPtuxZFJ5ANLaDKyq8xLh+iuOLtKvc4OeY vIRjipO6VidWB+IiYw8PD80mFxLZNgpZYmzcbDZYon+ohP4wDFVNPL0BkwJZVzydoZgo7dNuMeGR elHN9Re98a8AobXMN1g8p+b0Zjn5j40gdJ/cRSUNfTEQ53CxBS3QRxCveKIxBhHRSj1UIzwq9NtX eWJtE2ewIBoiSJM82p/R/er7ng3GqsUz1DaFZInqBr5mdlZMeM6m8JQEhCjP1us10jMhMa7PMSQK EK4yJ05qf5Bwlj2r8UotQNRnnm7PapayeBlDEemaCfdWnQyeRQKUUjjfGEbQ/6hdOYLa7GyBpJ6p IIiLwhqBs1ia0Ax9BAC4u7vD7XZ7kld937t9yWqOVeyq5KBXc+0qd/qPpTdO0xQ8YyDNNaMR9qqN hR+JTceQOepdvYweScWFg1SNtVi0gCZybiiusoxerrUvMbnhj/OQ8ticDlLFOVJLOkhCPxccIgQJ LWFMBxHvGZXZ53lGWmZSp6RDJ6WrkprLEasrdaqxkBrDXJ41w0Z/htaUg9CAId7pI4grnk5NrQ2c ImxcktrGLnp8jIgod1VDhBwHUS2ezQNEmsS1SZ1kV7lpE8vYMAzo9KuzktTcMQ2usRhMWbJUNqQY cJZQXU5SoXK1YksxLXC4GIrGE5SIoEfSs91udxTJXKVuUc84CHIeuFoUg7ae9X2PtWOSpDE6isyp BVUzzwxJbcP1z85BnJqaW8Jc4AwayBB98JfIgWzP/GZQ2hAWBUit+GK4XhHIyjaD1SWGPpHQVHRx XrllbHJWjgvEXO+yxtbrNTv0qzrPAMPCruuijCemEqgmtSuqKU0/u4yxs6k5aSJ2sIGNjUs0nofr k5apuMRkH7if5/lElHZMOEXDVYcIzbGRKympzjwpgoS4vsoyrlYrO44j0tlnUyDW2rcmtCD0/KCY yqUOVKqIm8MwOClQfHC5eH7WZJp7e3urfs6RSwssbS5yvL6a8HgTQjXeiJk8a7eMdIYWed5Ch+vP 83yyP9ba6J7FGnd2pb66ujoWTFetc2d4qlGf+6xF7qjoUJLUBEGSakFTOUn6aTVc1NArnqEj2eM4 4jAM0XrGogWcgyQ++IZCn7OUJmdgs9mgay4W6fY8n3wSe3w2VDyrzvA4QyHICh01DEWq2oGhmmXE RFKz96vqcdkU8qtV6mmaMIeP6qpcKhpVRReSZ0muLy4xWhI7y9j19fWxIXTNBSdAYt6x6hnHw5hS QI3//+ZnjmG5pSylA7WVWtRcsI25pKYjLvU2t6Q/U61nMcgKQVURXN3f36M2ZLE8W6gB68xVlbHL y0v6IBWsVivxlGnQCn2VYzX+523GnoFXPQo1TRMeDgc8HA5tA2S73SKSD0iNzalzSW5KIWkcRzFA Jz27ubk5MZgL/1x3Y0qjLueVCupfXFygtAsVlxhExNRnAVZFI/0Isdie5U4AFjUW2+3Wuo8xWgyK FAMjgSbtpMYQ8ueM51SDlHaF/tfTNNkaxlW8jOv1Okq/czfxBx7XxwnLA/CGAAAAAElFTkSuQmCC "
     width="27"
     height="214"
     id="left"
     x="0"
     y="34" />
  <image
     inkscape:label="#image2580"
     xlink:href="data:image/png;base64,iVBORw0KGgoAAAANSUhEUgAAABkAAADWCAYAAAAkVykCAAAAAXNSR0IArs4c6QAAAAZiS0dEAP8A /wD/oL2nkwAAAAlwSFlzAAAJOQAACTkBXd2zJwAAAAd0SU1FB9gDGQ0qJXS/3RsAAAavSURBVHja zVtNbxs5DNXXzCQ2XBiGLwEC5H/kV+49/y2HvXezhwViJx6yl5Ehj/VBUlKwAoy2bjsMRfLx8Umj 39/fcZ5nNc+z+vr6UufzWZ1OJ/X5+anO57N6fX1Vh8NB+fX29vbXx8fH3+M4/p6m6fdms/lnt9v9 ezgc/tvv95/Pz8+n4/H4rZQC/zFaa2WMUVprpbVW4UJEtV4AgACgAeD63eVy0afTSaWWQcSbh60N rRciKgBApZSa51l9f39f/26eZ4waiT3E/xrzZPlez/OsqMvEtib28JUhXLYN/RaSjMQenorJ6s90 T3LbFvNEMVYyJiXjVUaoi2NMbITliS/C3Ce1wiRI1YjIE601NotJzgNidmF1TDgeGUFW3TzcWovN jTSNSS4uoSEAQK01dKkTAEBjDJawLWqk1E+u/3FlYBxHZBVjqlMGwYeu2NU88KkU9h6WmlWzYowF vxpWwu2iGChmF8VQr8CzUl0cE1zW+vtIT8Ga7Gq7XbltMcYoAEDnXLn9+oeFvzfGKGNMMujiflLq 6bHs8v2k2OM5mRL+24B4IzsmVI+6pTAAIDfDqlBYDCtUQ1QEzsYklRAB+v4cFyZB/Zrzxoozknko jknLtCXHJMdxvTeUBDC5oCeM4fr7YRhwmib+6JAj7r6XNCMS65+6GSUqTVmLITDGYMjqt9sttoKV /gBJ7O33Ag73J+bGxa1bbmnyrW6/3BTOwArW0lR28E3OixK8hApRTv+SYNearagq7KKksAggJQ1r GAYUG0mlsP9Qi9LEtqcUk9wWxQyZ1NSbKsgfGUy9IWp/j3JhQvqymEoVCvu4dFOJOMROrNz5rWrS 46lAOM8zPjw8YDPs0lpjMwGHAunGGCy13uxgWlIjwqKswq5Ur+EUohggb0iCc12hHpupRDGAFMse kYfloL77fBKdTbqcOrChnikW9Cfci3rEG0xzwjMFIKv6SYlwd43JWvYAABRJURSlaD399tJWkMKD xUSiusf3kD7ERCIWG9KhP0UiDwg3vU5yMpQvzExseP2EA/WimDB1YX9V5GaxeJc3iIjNBAPRSVD3 QxrO1FVtxMtQ1lr0B5m/fv2i10kpGXzqVvX41tBydzmGwFQAAMhe3ElRsVac2i7/IY3Y/wt5sEV8 JJSovhi5aVw6/mtS8WyopzStRSwAasOqHky7Bt4HP7wSJ55+u3vCOfDPXSep4cIUpkK7FZU6CVrV SfuLGKHmRfGC1E8ogoFSSm02G1rT4pzFhzDPnk+oaQsAd6MD+QJsyWCqWYmGIC6rz22ZS1V6xhCI BlP2oUtgwBgDVQCZSl+OJpzMLoL2ePPn3LlvVWekenED9RRBLeZFrxGbpW6LA8/1qIrclW5yiqUo f0xO1VV+nndxkZiVwlzeFUPh5npX2HqttbRTB0Hr/RmViNu4DPcnXKvby8WY9inMgRTSduVAMiR2 qTsr0Yov4ZKPhbVWfgRIGOeQU4jNWL1I9qBknBhWqEJnjtGzFAnquyfdoL66Tih0KLzXFRrc7/fQ JLtEbzdxuXDs9s04jlcPXl5ekMWFU4aaFWNpe6y1/NuDMTiJecIdgGrGuSs4loQCqTwI1Z5wsItS 7SLeZYxR3aFesrK6cK4YqxgkxQOOeFOc41M0NWSRIgbJGbEBAEtDKUnAiXyHsfl9u91CVyKROzQT b1dTFE4Ffj3Ksd5g7iYWcGeRRXgGUcXHqr77YEolEux+QjlkXlBYGWPAWgvV2dV1u3L4te7x4vfj S0F3ziHlmKlJMVJnFElnvPJgX/E5CV3ctAikDu+4cHjhovRK7rorkvqJhKVT225NMeJayOlWjM65 OnKXS4CQ3FHfDTK5yTd3ptV0PokZKrxNUz9i+6HUx6NEIqpReBzH65yy3+/phzQEGYr1Iti14lPS RyrDnHM3SkRO6yIxyIgnbSatrpdjGJyLR4m4NeJViGEYcBzHfinsUZgKksWDsxZigfuRwVQyZQ3D gGHw/bY9PT1hkQt7Gkr1gtJ676CeInSuRecCvGCRraSMLenb74riepU4l6hOYhPWbrdre/M5ZI6h 9tiaSMBiINaSsRmsdCcS1lp0zgGH3LncAyUUllTxYdWnToTGcfQe4eVyKTL76hQu9XfRpJXKoOPx yL8Am0pha+3N7E5JAHEKUxFYBJDh1Ou9KHnDPpYN4YQCjiLs8tk1TdMVt3I8WDw6iIvRZxThZW+c pun6sncJ5pv1k6rsIq6iUZeKQ+lN/8fHx/CdB8wZSx6c5WKS4b/ImhkzxYjBw1Ie3Hz3B869oH+N QE2vAAAAAElFTkSuQmCC "
     width="25"
     height="214"
     id="right"
     x="228.99669"
     y="34" />
  <image
     inkscape:label="#image2637"
     xlink:href="data:image/png;base64,iVBORw0KGgoAAAANSUhEUgAAAMoAAAAiCAYAAAAeckZHAAAAAXNSR0IArs4c6QAAAAZiS0dEAP8A /wD/oL2nkwAAAAlwSFlzAAAJOQAACTkBXd2zJwAAAAd0SU1FB9gDGQ0pCBpN0q0AAAFmSURBVHja 7drLasMwEEbhX6NRoaUU8lR9/0UeJA9gTRepgnyRKWmyaH2+lQNZGOPjkS8pIpIAbEophSSlRShE A1xF/8MlGccEWA+TvVCYKMBgomQCAfaDcUmFaQLsTpVwSS+LSAgG6CJpobwOAiEYHP3eJPpQ3row 0k+eAABHiqSF8r6IhCi4UBDJPJbqkj66UIgFR7y4xMbvmIVSaz0RChMFm5MkJFUzmzwiTrVWa6Gk lBInGY4cS0TcQjGzaZqm6pI+zWw0STjJcZQL5G351T6E7KdK+q4HwA4+iAQIBSAUgFAAQgEIBSAU gFAAEApwNz+fz4oI9S/oeVmPZ3n8p4TP28d+X/1yuewG8tto/sKBAUbnbNv2nPMwiv8wWQgVjzhn vJTCUgsYBNPa8FLK5p+IB9w3XdVa5e5OIMAgmjZVVqEAWK+uPOc8W4sBmE+TiJCbmSKCp0PAYBlm ZvK2wUQBxvcqX5mVhp5oTTQvAAAAAElFTkSuQmCC "
     width="202"
     height="34"
     id="top"
     x="27"
     y="0" />
  <image
     inkscape:label="#image2694"
     xlink:href="data:image/png;base64,iVBORw0KGgoAAAANSUhEUgAAABsAAAAiCAYAAACuoaIwAAAAAXNSR0IArs4c6QAAAAZiS0dEAP8A /wD/oL2nkwAAAAlwSFlzAAAJOQAACTkBXd2zJwAAAAd0SU1FB9gDGQ0qBtbYrGkAAANQSURBVEjH vZZNb+M2EIbn5YcoOxu0CdqciqJoD0Uv7Y/ooqeeir3uoUD/cS5BkGuQY+LYjkjOaNhDJMORJdvJ pjUwIGXT8+gdznBI9D9+8J7OSin4z2ATzie/wztBMDLHF8EGEOwZR3/DO0H22WYNvgDUmxmZmzEw XgnCCGjKduB4A2jbgR0Zh99t1uMNIDNw7CbGHag7oujH1PROe/OD0Y1Ad2Fbqsb2xw4AvVWDcQeq qtYdUIRB2Po/905DNw9EFNq2DUQUAHgi8qrqicgBsDvKJk6GYeiqbYCIzADURFSral1KqQFUpZQK wBmAH4nojIjgjlRlBqELIjIjopmqzkop884+VFX1B4BfAHwP4GzbsTugarhXPuccANSq2gNOSilz a+3PIYR/AHw3lW3uQAZuq3I55wpAUNWZiMyJ6EMp5asQwl/e+z+7l6JjYZhQZVNKXkSqUkrow9e2 7cnp6eln59zHY87Yo5TFGL2IVKrqAdTMPFPVkxDCb86534/tGu5QbT09PTlrrRUR37ZtKKUEEZmp 6tn5+fnfr2lTbk8DfD7PAJtzdqrqmDmISN227ezi4uKTMebb1/RDty/tV6uVERFbSnEpJc/MVc55 JiJ1VVW/vrbD760zAIaZLTPbLVgwxnxtrf3mtTAzdVw9Pj6apmlMztmklFxKyTdN42OM1Xw+/+kt 9xc31RwBIOdsRcQ0TeNijC6lFETE13X9w4GmS8vlklarFa1WK2JmKqWQ23PXQ0oJKSWbc7ZN07gO XnnvJ0O4Xq/p+vqa1us1ASBs9Wc3dte7v783KSXknE3TNCbGaFJKrqs3p6qjJ8Xt7S3d3NwQADLG bGC9TSUIdftFKSXbNI2NMdoYo2Nmp6o70Vgul3R1dUXW2g2sn/fPbt9tlplNSgkxxk2yiIgdwkop dHl5uXm21m5g29CpoqamacDM6EJomdnmnC0zm7Zth2GnxWJB3nsyxjyrcI689xvgVBhpsVigUwZm ppwzcs5gZuScTSlluP75bbtw9TBrLTnnJsNId3d3ICKKMSLGSG3bQkQgIj2QhrCHh4cXsGEYN3ao ELt9ImbuoaSqL9bEGF+eFJ3zbaUA9sNEBKpaRKSf74BeZNcg1bfT3xhD/wJDSvmPLVMCwgAAAABJ RU5ErkJggg== "
     width="27"
     height="34"
     id="topleft"
     x="0"
     y="0" />
  <image
     inkscape:label="#image2751"
     xlink:href="data:image/png;base64,iVBORw0KGgoAAAANSUhEUgAAABkAAAAiCAYAAACqVHINAAAAAXNSR0IArs4c6QAAAAZiS0dEAP8A /wD/oL2nkwAAAAlwSFlzAAAJOQAACTkBXd2zJwAAAAd0SU1FB9gDGQ0pL79HZ8YAAAOHSURBVEjH vZVPbiw1EMa/Ktvdk04G8pagECS2iFsgTsANOMa7CcdArDlCllEkhBJAKETKYvJn2m2X7WKR7qHT 6U7miScslWralus3X7nKBv6HQapKi4tE+rEgPDOvHxNIqupGQXUBpP8FaAGYCWTu9zPYkOJ9YbY3 XQDozNoz2D4gC6DqN5VJwLIw/wy2D8gCqGeCLtmwPqihfUAWQDMJlEc+T77LTDrfVGQBHE6CpFHw NPrmCbRMi2IJZAF8MhN0MJl46i33+/cCWQCfTgDSWxx50/sBMh5lqYF3kJTSux4izJwARFWNxpgA IPR/JPTp4hnIAKIlNZaIviul/Kmqf+ScIxEFZu5EJDBzB8CpqrXWLl0/Oqq0+RtCVYcJUdW/VPUq 5/xLKeU3AC0zt6ra9d4753yvLI5SOy6IXdUNasaQ8UgppZ9jjD8BeGDm7WAjUDcCjStyp+4tyFOi S/k9hPBjzvlXZn4E8MjMW2NMW0rxdV3PgV6o4deuA2b+crVavS+lnIjIYc65KaXUKaWKiFzXda6v PH6tMPjNt4CoaZrmhxjjoYgchBCaGOMAsm3b2hGIJrYfBACstV83TfNtD1iJyCqlZEXEEtGrgL0h ANA0zfcAPuu6bhVjrESkTim5GKPdbrdT0ItrZb8nlGhV1/U3j4+Pf+ec61KKs0/DOOd4QY2qKtkP eUadc19571fOuVpVq1KKA2BCCCbnzOv1eqqCAOiHQr7w3tc556qU4lJKlpkZADvnFs/Enp+f4/Dw EEdHR1iv16iqahFSVdXnfWXVKSVXVZU1xti6rk3btpxS4uPjYxqrAAC72Wyw2Www9OTp6SlOTk5A RHN9Uxlj3nnv73LOTlUNAMvMdHBwQDS3CQAbY3YBVRWXl5c4OztDSmlWTdd1rus6G0IwvVGMkdq2 pclZPIcMNsDu7+9xcXExC4kxGu+97brOeu+tiBjvvYkxcq/kZcdba2GthTEGzLwDXV9f4+bmZg7C MUYOIXAIgfuzoK7r6OHhYaqG0FcFlkBXV1dzEOrTNIDIe79r6tvb25fNOE5TKQU5ZxARVBV3d3cv ICLCIkJPdcBwzpGIUAgB2+2W6rrGbLqYeadirERE0Lbtsw05Z4gIiQillFhEOMaIGCO9cpv/Cxir GtSEEKav2QAYPHLOCCEsQ4gIg/XUZz0yfdNyzjqktTdKKREATMp4N/4B/CuSSmrc7nAAAAAASUVO RK5CYII= "
     width="25"
     height="34"
     id="topright"
     x="229"
     y="0" />
  <rect
     inkscape:label="#rect2389"
     y="41.93417"
     x="-43.645767"
     height="17.543888"
     width="20.539185"
     id="hint-stretch-borders"
     style="opacity:1;fill:#004d00;fill-opacity:0.68807337000000002;stroke:none;stroke-width:1;stroke-linecap:butt;stroke-linejoin:round;stroke-miterlimit:4;stroke-dasharray:1, 1;stroke-dashoffset:0;stroke-opacity:1" />
</svg>
