<?xml version="1.0" encoding="UTF-8" standalone="no"?>
<!-- Created with Inkscape (http://www.inkscape.org/) -->
<svg
   xmlns:dc="http://purl.org/dc/elements/1.1/"
   xmlns:cc="http://creativecommons.org/ns#"
   xmlns:rdf="http://www.w3.org/1999/02/22-rdf-syntax-ns#"
   xmlns:svg="http://www.w3.org/2000/svg"
   xmlns="http://www.w3.org/2000/svg"
   xmlns:xlink="http://www.w3.org/1999/xlink"
   xmlns:sodipodi="http://sodipodi.sourceforge.net/DTD/sodipodi-0.dtd"
   xmlns:inkscape="http://www.inkscape.org/namespaces/inkscape"
   width="744.09448819"
   height="1052.3622047"
   id="svg2"
   sodipodi:version="0.32"
   inkscape:version="0.46"
   sodipodi:docbase="/home/kde-devel/Pictures/Plasma themes/Aya/widgets"
   sodipodi:docname="pager.svgz"
   inkscape:output_extension="org.inkscape.output.svgz.inkscape">
  <defs
     id="defs4">
    <linearGradient
       inkscape:collect="always"
       id="linearGradient7871">
      <stop
         style="stop-color:#ffffff;stop-opacity:1;"
         offset="0"
         id="stop7873" />
      <stop
         style="stop-color:#ffffff;stop-opacity:0;"
         offset="1"
         id="stop7875" />
    </linearGradient>
    <linearGradient
       inkscape:collect="always"
       id="linearGradient7833">
      <stop
         style="stop-color:#000000;stop-opacity:0.19607843"
         offset="0"
         id="stop7835" />
      <stop
         style="stop-color:#000000;stop-opacity:0;"
         offset="1"
         id="stop7837" />
    </linearGradient>
    <linearGradient
       id="linearGradient3353">
      <stop
         style="stop-color:#ffffff;stop-opacity:0.47058824;"
         offset="0"
         id="stop3355" />
      <stop
         style="stop-color:#ffffff;stop-opacity:0;"
         offset="1"
         id="stop3357" />
    </linearGradient>
    <linearGradient
       id="linearGradient3225">
      <stop
         id="stop3227"
         offset="0"
         style="stop-color:#ffffff;stop-opacity:0;" />
      <stop
         id="stop3229"
         offset="1"
         style="stop-color:#ffffff;stop-opacity:0.21568628;" />
    </linearGradient>
    <linearGradient
       id="linearGradient3213">
      <stop
         style="stop-color:#ffffff;stop-opacity:0;"
         offset="0"
         id="stop3215" />
      <stop
         style="stop-color:#ffffff;stop-opacity:0.17647059;"
         offset="1"
         id="stop3217" />
    </linearGradient>
    <linearGradient
       id="linearGradient3266">
      <stop
         id="stop3268"
         offset="0"
         style="stop-color:#ffffff;stop-opacity:0.47058824;" />
      <stop
         id="stop3270"
         offset="1"
         style="stop-color:#ffffff;stop-opacity:0.23529412;" />
    </linearGradient>
    <linearGradient
       id="linearGradient3240">
      <stop
         id="stop3242"
         offset="0"
         style="stop-color:#ffffff;stop-opacity:0.58823532;" />
      <stop
         style="stop-color:#efefef;stop-opacity:0.736;"
         offset="0.10144927"
         id="stop3207" />
      <stop
         id="stop3244"
         offset="1"
         style="stop-color:#a3a3a3;stop-opacity:0.47058824;" />
    </linearGradient>
    <linearGradient
       id="linearGradient3212">
      <stop
         style="stop-color:#000000;stop-opacity:0.40000001;"
         offset="0"
         id="stop3214" />
      <stop
         style="stop-color:#ffffff;stop-opacity:0.37419355;"
         offset="1"
         id="stop3216" />
    </linearGradient>
    <inkscape:perspective
       sodipodi:type="inkscape:persp3d"
       inkscape:vp_x="0 : 526.18109 : 1"
       inkscape:vp_y="0 : 1000 : 0"
       inkscape:vp_z="744.09448 : 526.18109 : 1"
       inkscape:persp3d-origin="372.04724 : 350.78739 : 1"
       id="perspective37" />
    <linearGradient
       id="linearGradient3155">
      <stop
         id="stop3157"
         offset="0"
         style="stop-color:#000000;stop-opacity:0.21568628;" />
      <stop
         style="stop-color:#000000;stop-opacity:0.3019608;"
         offset="0.75"
         id="stop3161" />
      <stop
         id="stop3159"
         offset="1"
         style="stop-color:#000000;stop-opacity:0.39215687;" />
    </linearGradient>
    <linearGradient
       id="linearGradient3142">
      <stop
         style="stop-color:#ffffff;stop-opacity:0.3137255;"
         offset="0"
         id="stop3144" />
      <stop
         id="stop3150"
         offset="0.5"
         style="stop-color:#ffffff;stop-opacity:0.03921569;" />
      <stop
         style="stop-color:#ffffff;stop-opacity:0.3137255;"
         offset="1"
         id="stop3146" />
    </linearGradient>
    <linearGradient
       id="linearGradient3141">
      <stop
         id="stop3143"
         offset="0"
         style="stop-color:#ffffff;stop-opacity:0.24742268;" />
      <stop
         id="stop3145"
         offset="1"
         style="stop-color:#000000;stop-opacity:0.13725491;" />
    </linearGradient>
    <linearGradient
       id="linearGradient3138">
      <stop
         style="stop-color:#000000;stop-opacity:0.39215687;"
         offset="0"
         id="stop3140" />
      <stop
         style="stop-color:#000000;stop-opacity:0.23529412;"
         offset="1"
         id="stop3142" />
    </linearGradient>
    <linearGradient
       inkscape:collect="always"
       xlink:href="#linearGradient3138"
       id="linearGradient3144"
       x1="138.9416"
       y1="500.65243"
       x2="463.47676"
       y2="500.65243"
       gradientUnits="userSpaceOnUse"
       gradientTransform="translate(-38.538548,117.64399)" />
    <linearGradient
       inkscape:collect="always"
       xlink:href="#linearGradient3138"
       id="linearGradient3150"
       gradientUnits="userSpaceOnUse"
       gradientTransform="matrix(0.8095237,0,0,0.8095237,115.39832,74.064817)"
       x1="138.9416"
       y1="500.65243"
       x2="463.47676"
       y2="500.65243" />
    <linearGradient
       inkscape:collect="always"
       xlink:href="#linearGradient3138"
       id="linearGradient3154"
       gradientUnits="userSpaceOnUse"
       gradientTransform="matrix(0.8095237,0,0,0.8095237,115.17093,73.664405)"
       x1="138.9416"
       y1="500.65243"
       x2="463.47676"
       y2="500.65243" />
    <linearGradient
       inkscape:collect="always"
       xlink:href="#linearGradient3212"
       id="linearGradient3218"
       x1="190"
       y1="651.36218"
       x2="190"
       y2="581.36218"
       gradientUnits="userSpaceOnUse"
       gradientTransform="translate(-26.930775,-15.591502)" />
    <linearGradient
       inkscape:collect="always"
       xlink:href="#linearGradient3213"
       id="linearGradient3219"
       x1="154.77864"
       y1="819.09613"
       x2="153.99596"
       y2="852.13678"
       gradientUnits="userSpaceOnUse"
       gradientTransform="matrix(1.4168326,0,0,0.594872,-56.226421,93.794204)" />
    <linearGradient
       inkscape:collect="always"
       xlink:href="#linearGradient3225"
       id="linearGradient3223"
       gradientUnits="userSpaceOnUse"
       gradientTransform="matrix(1.4168326,0,0,0.594872,96.7866,202.56491)"
       x1="154.77864"
       y1="819.09613"
       x2="153.99596"
       y2="852.13678" />
    <linearGradient
       inkscape:collect="always"
       xlink:href="#linearGradient3225"
       id="linearGradient3341"
       gradientUnits="userSpaceOnUse"
       gradientTransform="matrix(1.4168326,0,0,0.594872,96.7866,202.56491)"
       x1="154.77864"
       y1="819.09613"
       x2="153.99596"
       y2="852.13678" />
    <radialGradient
       inkscape:collect="always"
       xlink:href="#linearGradient3353"
       id="radialGradient3351"
       cx="550.02356"
       cy="682.47278"
       fx="550.02356"
       fy="682.47278"
       r="46.503448"
       gradientTransform="matrix(1,-4.0724871e-6,6.5624334e-7,0.5977015,-233.91845,335.01899)"
       gradientUnits="userSpaceOnUse" />
    <linearGradient
       inkscape:collect="always"
       xlink:href="#linearGradient7833"
       id="linearGradient7839"
       x1="163.069"
       y1="565.7702"
       x2="163.069"
       y2="585.7702"
       gradientUnits="userSpaceOnUse"
       gradientTransform="matrix(1,0,0,1.5000117,0,-282.89202)" />
    <radialGradient
       inkscape:collect="always"
       xlink:href="#linearGradient7833"
       id="radialGradient7847"
       cx="113.069"
       cy="590.77045"
       fx="113.069"
       fy="590.77045"
       r="9.9997501"
       gradientTransform="matrix(5.1431085e-5,7.000165,-4.0001424,7.3472029e-6,2476.2288,-225.73573)"
       gradientUnits="userSpaceOnUse" />
    <radialGradient
       inkscape:collect="always"
       xlink:href="#linearGradient7833"
       id="radialGradient7851"
       gradientUnits="userSpaceOnUse"
       gradientTransform="matrix(-5.1431085e-5,7.000165,4.0001424,7.3472029e-6,-2150.0908,-225.73572)"
       cx="113.069"
       cy="590.77045"
       fx="113.069"
       fy="590.77045"
       r="9.9997501" />
    <linearGradient
       inkscape:collect="always"
       xlink:href="#linearGradient7833"
       id="linearGradient7863"
       gradientUnits="userSpaceOnUse"
       x1="163.069"
       y1="565.7702"
       x2="163.069"
       y2="585.7702" />
    <radialGradient
       inkscape:collect="always"
       xlink:href="#linearGradient7833"
       id="radialGradient7865"
       gradientUnits="userSpaceOnUse"
       gradientTransform="matrix(2.5715221e-5,7.000165,-2.0000463,7.3472029e-6,1294.6344,-225.73573)"
       cx="113.069"
       cy="590.77045"
       fx="113.069"
       fy="590.77045"
       r="9.9997501" />
    <radialGradient
       inkscape:collect="always"
       xlink:href="#linearGradient7833"
       id="radialGradient7867"
       gradientUnits="userSpaceOnUse"
       gradientTransform="matrix(-2.5715221e-5,7.000165,2.0000463,7.3472029e-6,-968.4964,-225.73572)"
       cx="113.069"
       cy="590.77045"
       fx="113.069"
       fy="590.77045"
       r="9.9997501" />
    <radialGradient
       inkscape:collect="always"
       xlink:href="#linearGradient7871"
       id="radialGradient7877"
       cx="163.069"
       cy="636.48407"
       fx="163.069"
       fy="636.48407"
       r="49.999995"
       gradientTransform="translate(-3.1078316e-6,-10.713933)"
       gradientUnits="userSpaceOnUse" />
    <linearGradient
       inkscape:collect="always"
       xlink:href="#linearGradient7833"
       id="linearGradient7885"
       gradientUnits="userSpaceOnUse"
       x1="163.069"
       y1="565.7702"
       x2="163.069"
       y2="585.7702"
       gradientTransform="translate(153.0135,107.16155)" />
    <radialGradient
       inkscape:collect="always"
       xlink:href="#linearGradient7833"
       id="radialGradient7887"
       gradientUnits="userSpaceOnUse"
       gradientTransform="matrix(2.5715221e-5,7.000165,-2.0000463,7.3472029e-6,1447.6479,-118.57418)"
       cx="113.069"
       cy="590.77045"
       fx="113.069"
       fy="590.77045"
       r="9.9997501" />
    <radialGradient
       inkscape:collect="always"
       xlink:href="#linearGradient7833"
       id="radialGradient7889"
       gradientUnits="userSpaceOnUse"
       gradientTransform="matrix(-2.5715221e-5,7.000165,2.0000463,7.3472029e-6,-815.4829,-118.57417)"
       cx="113.069"
       cy="590.77045"
       fx="113.069"
       fy="590.77045"
       r="9.9997501" />
    <radialGradient
       inkscape:collect="always"
       xlink:href="#linearGradient7833"
       id="radialGradient7897"
       gradientUnits="userSpaceOnUse"
       gradientTransform="matrix(5.1430442e-5,7.000165,-4.0000926,7.3472029e-6,2629.2128,-118.57418)"
       cx="113.069"
       cy="590.77045"
       fx="113.069"
       fy="590.77045"
       r="9.9997501" />
    <linearGradient
       inkscape:collect="always"
       xlink:href="#linearGradient7833"
       id="linearGradient7899"
       gradientUnits="userSpaceOnUse"
       gradientTransform="matrix(1,0,0,2.000025,153.0135,-458.62326)"
       x1="163.069"
       y1="565.7702"
       x2="163.069"
       y2="585.7702" />
    <radialGradient
       inkscape:collect="always"
       xlink:href="#linearGradient7833"
       id="radialGradient7901"
       gradientUnits="userSpaceOnUse"
       gradientTransform="matrix(-5.1431728e-5,7.000165,4.0001926,7.3472029e-6,-1997.1069,-118.57417)"
       cx="113.069"
       cy="590.77045"
       fx="113.069"
       fy="590.77045"
       r="9.9997501" />
    <linearGradient
       inkscape:collect="always"
       xlink:href="#linearGradient7833"
       id="linearGradient7905"
       gradientUnits="userSpaceOnUse"
       gradientTransform="matrix(1,0,0,-2.000025,153.01277,1874.4872)"
       x1="163.069"
       y1="565.7702"
       x2="163.069"
       y2="585.7702" />
    <linearGradient
       inkscape:collect="always"
       xlink:href="#linearGradient7833"
       id="linearGradient7911"
       gradientUnits="userSpaceOnUse"
       gradientTransform="matrix(1,0,0,-2.000025,153.01278,1874.4872)"
       x1="163.069"
       y1="565.7702"
       x2="163.069"
       y2="585.7702" />
    <radialGradient
       inkscape:collect="always"
       xlink:href="#linearGradient7833"
       id="radialGradient7921"
       cx="163.069"
       cy="650.76996"
       fx="163.069"
       fy="650.76996"
       r="49.999996"
       gradientTransform="matrix(1,0,0,0.7000001,0,180.23116)"
       gradientUnits="userSpaceOnUse" />
  </defs>
  <sodipodi:namedview
     id="base"
     pagecolor="#ffffff"
     bordercolor="#666666"
     borderopacity="1.0"
     gridtolerance="10000"
     guidetolerance="10"
     objecttolerance="10"
     inkscape:pageopacity="0.0"
     inkscape:pageshadow="2"
     inkscape:zoom="1.0484052"
     inkscape:cx="185.2304"
     inkscape:cy="277.98641"
     inkscape:document-units="px"
     inkscape:current-layer="layer1"
     inkscape:window-width="1440"
     inkscape:window-height="842"
     inkscape:window-x="-5"
     inkscape:window-y="33"
     showgrid="true"
     showguides="true"
     inkscape:guide-bbox="true">
    <inkscape:grid
       type="xygrid"
       id="grid7829" />
  </sodipodi:namedview>
  <metadata
     id="metadata7">
    <rdf:RDF>
      <cc:Work
         rdf:about="">
        <dc:format>image/svg+xml</dc:format>
        <dc:type
           rdf:resource="http://purl.org/dc/dcmitype/StillImage" />
      </cc:Work>
    </rdf:RDF>
  </metadata>
  <g
     inkscape:label="Layer 1"
     inkscape:groupmode="layer"
     id="layer1">
    <rect
       style="opacity:1;fill:#c0c0c0;fill-opacity:1;stroke:none;stroke-width:1;stroke-linecap:square;stroke-linejoin:round;stroke-miterlimit:4;stroke-dasharray:none;stroke-opacity:0.0782123"
       id="rect3155"
       width="632.84351"
       height="161.61845"
       x="41.451813"
       y="539.31244"
       ry="3.2849276" />
    <rect
       style="opacity:1;fill:#828282;fill-opacity:0;stroke:none;stroke-width:1;stroke-linecap:square;stroke-miterlimit:4;stroke-dasharray:none;stroke-opacity:0.78431373"
       id="normal"
       width="376.6741"
       height="84.83651"
       x="116.7721"
       y="161.06328"
       inkscape:label="#rect2162" />
    <g
       id="normal-center"
       inkscape:label="#g3235"
       transform="translate(-13.069,16.592006)"
       style="fill:#ffffff;fill-opacity:0.11764706">
      <path
         inkscape:label="#path2465"
         id="blah"
         d="M 113.06923,635.77068 L 213.06922,635.77068 L 213.06922,565.77068 L 113.06923,565.77068 L 113.06923,635.77068 z"
         style="fill:#7f7f7f;fill-opacity:0.50239235;stroke:none;stroke-width:1;stroke-linecap:square;stroke-linejoin:round;stroke-miterlimit:4;stroke-dasharray:none;stroke-opacity:0.19607843000000000" />
      <path
         style="fill:url(#linearGradient7839);fill-opacity:1;stroke:none;stroke-width:1;stroke-linecap:square;stroke-linejoin:round;stroke-miterlimit:4;stroke-dasharray:none;stroke-opacity:0.19607843"
         d="M 113.06923,595.77018 L 213.06922,595.77018 L 213.06922,565.77068 L 113.06923,565.77068 L 113.06923,595.77018 z"
         id="path7831"
         inkscape:label="#path2465" />
      <path
         inkscape:label="#path2465"
         id="path7841"
         d="M 153.069,635.77017 L 153.069,565.77018 L 113.0695,565.77018 L 113.0695,635.77017 L 153.069,635.77017 z"
         style="fill:url(#radialGradient7847);fill-opacity:1;stroke:none;stroke-width:1;stroke-linecap:square;stroke-linejoin:round;stroke-miterlimit:4;stroke-dasharray:none;stroke-opacity:0.19607843" />
      <path
         style="fill:url(#radialGradient7851);fill-opacity:1;stroke:none;stroke-width:1;stroke-linecap:square;stroke-linejoin:round;stroke-miterlimit:4;stroke-dasharray:none;stroke-opacity:0.19607843"
         d="M 173.069,635.77018 L 173.069,565.77019 L 213.0685,565.77019 L 213.0685,635.77018 L 173.069,635.77018 z"
         id="path7849"
         inkscape:label="#path2465" />
    </g>
    <g
       id="active-center"
       inkscape:label="#g3231"
       transform="translate(73.918,-90.569547)"
       style="fill:#ffffff;fill-opacity:0.11764706">
      <path
         inkscape:label="#path2465"
         id="path3335"
         d="M 266.08227,742.93173 L 366.08226,742.93173 L 366.08226,672.93173 L 266.08227,672.93173 L 266.08227,742.93173 z"
         style="fill:#ffffff;fill-opacity:0.11764706;stroke:none;stroke-width:1;stroke-linecap:square;stroke-linejoin:round;stroke-miterlimit:4;stroke-dasharray:none;stroke-opacity:0.19607843" />
      <path
         style="fill:url(#linearGradient7885);fill-opacity:1;stroke:none;stroke-width:1;stroke-linecap:square;stroke-linejoin:round;stroke-miterlimit:4;stroke-dasharray:none;stroke-opacity:0.19607843"
         d="M 266.08273,692.93173 L 366.08272,692.93173 L 366.08272,672.93223 L 266.08273,672.93223 L 266.08273,692.93173 z"
         id="path7879"
         inkscape:label="#path2465" />
      <path
         inkscape:label="#path2465"
         id="path7881"
         d="M 286.0825,742.93172 L 286.0825,672.93173 L 266.083,672.93173 L 266.083,742.93172 L 286.0825,742.93172 z"
         style="fill:url(#radialGradient7887);fill-opacity:1;stroke:none;stroke-width:1;stroke-linecap:square;stroke-linejoin:round;stroke-miterlimit:4;stroke-dasharray:none;stroke-opacity:0.19607843" />
      <path
         style="fill:url(#radialGradient7889);fill-opacity:1;stroke:none;stroke-width:1;stroke-linecap:square;stroke-linejoin:round;stroke-miterlimit:4;stroke-dasharray:none;stroke-opacity:0.19607843"
         d="M 346.0825,742.93173 L 346.0825,672.93174 L 366.082,672.93174 L 366.082,742.93173 L 346.0825,742.93173 z"
         id="path7883"
         inkscape:label="#path2465" />
      <path
         inkscape:label="#path2465"
         id="path7891"
         d="M 266.08273,712.93173 L 366.08272,712.93173 L 366.08272,672.93223 L 266.08273,672.93223 L 266.08273,712.93173 z"
         style="fill:url(#linearGradient7899);fill-opacity:1;stroke:none;stroke-width:1;stroke-linecap:square;stroke-linejoin:round;stroke-miterlimit:4;stroke-dasharray:none;stroke-opacity:0.19607843" />
      <path
         style="fill:url(#radialGradient7897);fill-opacity:1;stroke:none;stroke-width:1;stroke-linecap:square;stroke-linejoin:round;stroke-miterlimit:4;stroke-dasharray:none;stroke-opacity:0.19607843"
         d="M 306.082,742.93172 L 306.082,672.93173 L 266.083,672.93173 L 266.083,742.93172 L 306.082,742.93172 z"
         id="path7893"
         inkscape:label="#path2465" />
      <path
         inkscape:label="#path2465"
         id="path7895"
         d="M 326.082,742.93173 L 326.082,672.93174 L 366.082,672.93174 L 366.082,742.93173 L 326.082,742.93173 z"
         style="fill:url(#radialGradient7901);fill-opacity:1;stroke:none;stroke-width:1;stroke-linecap:square;stroke-linejoin:round;stroke-miterlimit:4;stroke-dasharray:none;stroke-opacity:0.19607843" />
      <path
         style="fill:url(#linearGradient7905);fill-opacity:1;stroke:none;stroke-width:1;stroke-linecap:square;stroke-linejoin:round;stroke-miterlimit:4;stroke-dasharray:none;stroke-opacity:0.19607843"
         d="M 266.082,702.93223 L 366.08199,702.93223 L 366.08199,742.93173 L 266.082,742.93173 L 266.082,702.93223 z"
         id="path7903"
         inkscape:label="#path2465" />
      <path
         style="fill:url(#linearGradient7899);fill-opacity:1;stroke:none;stroke-width:1;stroke-linecap:square;stroke-linejoin:round;stroke-miterlimit:4;stroke-dasharray:none;stroke-opacity:0.19607843"
         d="M 266.08273,712.93173 L 366.08272,712.93173 L 366.08272,672.93223 L 266.08273,672.93223 L 266.08273,712.93173 z"
         id="path7907"
         inkscape:label="#path2465" />
      <path
         inkscape:label="#path2465"
         id="path7909"
         d="M 266.08201,702.93223 L 366.082,702.93223 L 366.082,742.93173 L 266.08201,742.93173 L 266.08201,702.93223 z"
         style="fill:url(#linearGradient7911);fill-opacity:1;stroke:none;stroke-width:1;stroke-linecap:square;stroke-linejoin:round;stroke-miterlimit:4;stroke-dasharray:none;stroke-opacity:0.19607843" />
    </g>
    <g
       style="fill:#ffffff;fill-opacity:0.11764706"
       transform="translate(106.931,16.592013)"
       inkscape:label="#g3235"
       id="hover-center">
      <path
         style="fill:#ffffff;fill-opacity:0.11764706;stroke:none;stroke-width:1;stroke-linecap:square;stroke-linejoin:round;stroke-miterlimit:4;stroke-dasharray:none;stroke-opacity:0.19607843"
         d="M 113.06923,635.77068 L 213.06922,635.77068 L 213.06922,565.77068 L 113.06923,565.77068 L 113.06923,635.77068 z"
         id="path7855"
         inkscape:label="#path2465" />
      <path
         inkscape:label="#path2465"
         id="path7857"
         d="M 113.06923,585.77018 L 213.06922,585.77018 L 213.06922,565.77068 L 113.06923,565.77068 L 113.06923,585.77018 z"
         style="fill:url(#linearGradient7863);fill-opacity:1;stroke:none;stroke-width:1;stroke-linecap:square;stroke-linejoin:round;stroke-miterlimit:4;stroke-dasharray:none;stroke-opacity:0.19607843" />
      <path
         style="fill:url(#radialGradient7865);fill-opacity:1;stroke:none;stroke-width:1;stroke-linecap:square;stroke-linejoin:round;stroke-miterlimit:4;stroke-dasharray:none;stroke-opacity:0.19607843"
         d="M 133.069,635.77017 L 133.069,565.77018 L 113.0695,565.77018 L 113.0695,635.77017 L 133.069,635.77017 z"
         id="path7859"
         inkscape:label="#path2465" />
      <path
         inkscape:label="#path2465"
         id="path7861"
         d="M 193.069,635.77018 L 193.069,565.77019 L 213.0685,565.77019 L 213.0685,635.77018 L 193.069,635.77018 z"
         style="fill:url(#radialGradient7867);fill-opacity:1;stroke:none;stroke-width:1;stroke-linecap:square;stroke-linejoin:round;stroke-miterlimit:4;stroke-dasharray:none;stroke-opacity:0.19607843" />
      <path
         inkscape:label="#path2465"
         id="path7869"
         d="M 113.06923,635.77068 L 213.06922,635.77068 L 213.06922,565.77068 L 113.06923,565.77068 L 113.06923,635.77068 z"
         style="fill:url(#radialGradient7877);fill-opacity:1;stroke:none;stroke-width:1;stroke-linecap:square;stroke-linejoin:round;stroke-miterlimit:4;stroke-dasharray:none;stroke-opacity:0.19607843000000000" />
    </g>
  </g>
</svg>
