<?xml version="1.0" encoding="UTF-8" standalone="no"?>
<!-- Created with Inkscape (http://www.inkscape.org/) -->
<svg
   xmlns:dc="http://purl.org/dc/elements/1.1/"
   xmlns:cc="http://creativecommons.org/ns#"
   xmlns:rdf="http://www.w3.org/1999/02/22-rdf-syntax-ns#"
   xmlns:svg="http://www.w3.org/2000/svg"
   xmlns="http://www.w3.org/2000/svg"
   xmlns:xlink="http://www.w3.org/1999/xlink"
   xmlns:sodipodi="http://sodipodi.sourceforge.net/DTD/sodipodi-0.dtd"
   xmlns:inkscape="http://www.inkscape.org/namespaces/inkscape"
   height="121"
   width="142"
   id="svg2216"
   sodipodi:version="0.32"
   inkscape:version="0.46"
   sodipodi:docbase="/home/irek/melly/thick/widgets"
   sodipodi:docname="systemtray.svgz"
   version="1.0"
   inkscape:output_extension="org.inkscape.output.svgz.inkscape">
  <defs
     id="defs2218">
    <linearGradient
       id="linearGradient3237">
      <stop
         style="stop-color:#000000;stop-opacity:0.78431374;"
         offset="0"
         id="stop3239" />
      <stop
         id="stop3261"
         offset="0.5"
         style="stop-color:#000000;stop-opacity:0.39215687;" />
      <stop
         style="stop-color:#000000;stop-opacity:0.39607843;"
         offset="0.81"
         id="stop3263" />
      <stop
         style="stop-color:#000000;stop-opacity:0.78431374;"
         offset="1"
         id="stop3241" />
    </linearGradient>
    <linearGradient
       id="linearGradient3233">
      <stop
         style="stop-color:#ffffff;stop-opacity:0;"
         offset="0"
         id="stop3235" />
      <stop
         style="stop-color:#ffffff;stop-opacity:0.39215687;"
         offset="1"
         id="stop3237" />
    </linearGradient>
    <linearGradient
       id="linearGradient3226">
      <stop
         style="stop-color:#f5f5f5;stop-opacity:0.1559633;"
         offset="0"
         id="stop3228" />
      <stop
         style="stop-color:#6e6e6e;stop-opacity:0;"
         offset="1"
         id="stop3230" />
    </linearGradient>
    <linearGradient
       id="linearGradient3223">
      <stop
         style="stop-color:#969696;stop-opacity:1;"
         offset="0"
         id="stop3225" />
      <stop
         id="stop3231"
         offset="0.5"
         style="stop-color:#3c3c3c;stop-opacity:1;" />
      <stop
         style="stop-color:#7d7d7d;stop-opacity:1;"
         offset="1"
         id="stop3227" />
    </linearGradient>
    <linearGradient
       id="linearGradient3763">
      <stop
         style="stop-color:#000000;stop-opacity:0.88235295;"
         offset="0"
         id="stop3765" />
      <stop
         style="stop-color:#ffffff;stop-opacity:0.88235295;"
         offset="1"
         id="stop3767" />
    </linearGradient>
    <linearGradient
       id="linearGradient3197">
      <stop
         style="stop-color:#ffffff;stop-opacity:0.11764706;"
         offset="0"
         id="stop3199" />
      <stop
         id="stop3205"
         offset="0.5"
         style="stop-color:#ffffff;stop-opacity:0.15686275;" />
      <stop
         style="stop-color:#ffffff;stop-opacity:0.11764706;"
         offset="1"
         id="stop3201" />
    </linearGradient>
    <linearGradient
       id="linearGradient4251">
      <stop
         style="stop-color:#878787;stop-opacity:1;"
         offset="0"
         id="stop4253" />
      <stop
         style="stop-color:#000000;stop-opacity:0.3137255;"
         offset="1"
         id="stop4255" />
    </linearGradient>
    <inkscape:perspective
       sodipodi:type="inkscape:persp3d"
       inkscape:vp_x="0 : 60.5 : 1"
       inkscape:vp_y="0 : 1000 : 0"
       inkscape:vp_z="142 : 60.5 : 1"
       inkscape:persp3d-origin="71 : 40.333333 : 1"
       id="perspective60" />
    <linearGradient
       id="linearGradient2787-247">
      <stop
         style="stop-color:#000000;stop-opacity:1;"
         id="stop5087"
         offset="0" />
      <stop
         style="stop-color:#424242;stop-opacity:1;"
         id="stop5089"
         offset="1" />
    </linearGradient>
    <linearGradient
       id="linearGradient2218">
      <stop
         style="stop-color:#000000;stop-opacity:1;"
         offset="0"
         id="stop2220" />
      <stop
         style="stop-color:#424242;stop-opacity:1;"
         offset="1"
         id="stop2222" />
    </linearGradient>
    <linearGradient
       id="linearGradient2561">
      <stop
         style="stop-color:#ffffff;stop-opacity:1;"
         offset="0"
         id="stop2563" />
      <stop
         style="stop-color:#ffffff;stop-opacity:0;"
         offset="1"
         id="stop2565" />
    </linearGradient>
    <linearGradient
       inkscape:collect="always"
       xlink:href="#linearGradient2561"
       id="linearGradient14611"
       gradientUnits="userSpaceOnUse"
       gradientTransform="matrix(0.301421,0,0,0.74211,-1.949375,1063.82)"
       x1="1445.2288"
       y1="-691.53094"
       x2="1445.2288"
       y2="-610.81329" />
    <linearGradient
       inkscape:collect="always"
       xlink:href="#linearGradient3223"
       id="linearGradient3229"
       x1="265.76245"
       y1="601.80383"
       x2="265.60489"
       y2="590.97632"
       gradientUnits="userSpaceOnUse"
       gradientTransform="translate(-18.447917,-9.1666666)" />
    <linearGradient
       inkscape:collect="always"
       xlink:href="#linearGradient3226"
       id="linearGradient3240"
       x1="6.1301904"
       y1="45.808044"
       x2="17.544975"
       y2="45.808044"
       gradientUnits="userSpaceOnUse" />
    <linearGradient
       inkscape:collect="always"
       xlink:href="#linearGradient3226"
       id="linearGradient3248"
       x1="13.102602"
       y1="38.702385"
       x2="13.102602"
       y2="50.254063"
       gradientUnits="userSpaceOnUse" />
    <linearGradient
       inkscape:collect="always"
       xlink:href="#linearGradient3226"
       id="linearGradient3256"
       x1="17.536787"
       y1="43.612648"
       x2="6.1293116"
       y2="43.612648"
       gradientUnits="userSpaceOnUse" />
    <linearGradient
       inkscape:collect="always"
       xlink:href="#linearGradient3237"
       id="linearGradient3243"
       x1="24.499861"
       y1="2.8621833"
       x2="24.499863"
       y2="-47.137798"
       gradientUnits="userSpaceOnUse" />
    <linearGradient
       inkscape:collect="always"
       xlink:href="#linearGradient3237"
       id="linearGradient3245"
       x1="9.4999952"
       y1="-2.1377831"
       x2="9.5"
       y2="-12.137778"
       gradientUnits="userSpaceOnUse" />
    <linearGradient
       inkscape:collect="always"
       xlink:href="#linearGradient3237"
       id="linearGradient3247"
       x1="2.0319939"
       y1="-2.1379898"
       x2="2.0319963"
       y2="-27.137531"
       gradientUnits="userSpaceOnUse" />
    <linearGradient
       inkscape:collect="always"
       xlink:href="#linearGradient3237"
       id="linearGradient3249"
       x1="16.999952"
       y1="-2.1378083"
       x2="16.999954"
       y2="-27.1378"
       gradientUnits="userSpaceOnUse" />
    <linearGradient
       inkscape:collect="always"
       xlink:href="#linearGradient3237"
       id="linearGradient3251"
       x1="16.967941"
       y1="-17.137751"
       x2="16.967943"
       y2="-42.137825"
       gradientUnits="userSpaceOnUse" />
    <linearGradient
       inkscape:collect="always"
       xlink:href="#linearGradient3237"
       id="linearGradient3253"
       x1="-5.4999008"
       y1="2.8621833"
       x2="-5.4998999"
       y2="-47.137798"
       gradientUnits="userSpaceOnUse" />
    <linearGradient
       inkscape:collect="always"
       xlink:href="#linearGradient3237"
       id="linearGradient3255"
       x1="295.21429"
       y1="638.00488"
       x2="295.21429"
       y2="588.00488"
       gradientUnits="userSpaceOnUse" />
    <linearGradient
       inkscape:collect="always"
       xlink:href="#linearGradient3237"
       id="linearGradient3257"
       x1="9.5000153"
       y1="-32.137825"
       x2="9.50002"
       y2="-42.137821"
       gradientUnits="userSpaceOnUse" />
    <linearGradient
       inkscape:collect="always"
       xlink:href="#linearGradient3237"
       id="linearGradient3259"
       x1="1.9999936"
       y1="-17.088781"
       x2="1.9999959"
       y2="-42.142075"
       gradientUnits="userSpaceOnUse" />
    <linearGradient
       inkscape:collect="always"
       xlink:href="#linearGradient3237"
       id="linearGradient3275"
       gradientUnits="userSpaceOnUse"
       x1="24.499861"
       y1="2.8621833"
       x2="24.499863"
       y2="-47.137798" />
    <linearGradient
       inkscape:collect="always"
       xlink:href="#linearGradient3237"
       id="linearGradient3277"
       gradientUnits="userSpaceOnUse"
       x1="24.499861"
       y1="2.8621833"
       x2="24.499863"
       y2="-47.137798" />
    <linearGradient
       inkscape:collect="always"
       xlink:href="#linearGradient3237"
       id="linearGradient3279"
       gradientUnits="userSpaceOnUse"
       x1="16.999952"
       y1="-2.1378083"
       x2="16.999954"
       y2="-27.1378" />
    <linearGradient
       inkscape:collect="always"
       xlink:href="#linearGradient3237"
       id="linearGradient3281"
       gradientUnits="userSpaceOnUse"
       x1="16.967941"
       y1="-17.137751"
       x2="16.967943"
       y2="-42.137825" />
    <linearGradient
       inkscape:collect="always"
       xlink:href="#linearGradient3237"
       id="linearGradient3283"
       gradientUnits="userSpaceOnUse"
       x1="2.0319939"
       y1="-2.1379898"
       x2="2.0319963"
       y2="-27.137531" />
    <linearGradient
       inkscape:collect="always"
       xlink:href="#linearGradient3237"
       id="linearGradient3287"
       gradientUnits="userSpaceOnUse"
       x1="-5.4999008"
       y1="2.8621833"
       x2="-5.4998999"
       y2="-47.137798" />
    <linearGradient
       inkscape:collect="always"
       xlink:href="#linearGradient3237"
       id="linearGradient3289"
       gradientUnits="userSpaceOnUse"
       x1="1.9999936"
       y1="-17.088781"
       x2="1.9999959"
       y2="-42.142075" />
    <linearGradient
       inkscape:collect="always"
       xlink:href="#linearGradient3237"
       id="linearGradient3293"
       gradientUnits="userSpaceOnUse"
       x1="9.4999952"
       y1="-2.1377831"
       x2="9.5"
       y2="-12.137778" />
    <linearGradient
       inkscape:collect="always"
       xlink:href="#linearGradient3237"
       id="linearGradient3295"
       gradientUnits="userSpaceOnUse"
       x1="9.5000153"
       y1="-32.137825"
       x2="9.50002"
       y2="-42.137821"
       gradientTransform="translate(0,6.0852084e-6)" />
    <linearGradient
       inkscape:collect="always"
       xlink:href="#linearGradient3237"
       id="linearGradient3297"
       gradientUnits="userSpaceOnUse"
       x1="9.5000153"
       y1="-32.137825"
       x2="9.50002"
       y2="-42.137821" />
    <linearGradient
       inkscape:collect="always"
       xlink:href="#linearGradient3237"
       id="linearGradient3299"
       gradientUnits="userSpaceOnUse"
       x1="9.5000153"
       y1="-32.137825"
       x2="9.50002"
       y2="-42.137821"
       gradientTransform="translate(0,6.0852084e-6)" />
  </defs>
  <sodipodi:namedview
     id="base"
     pagecolor="#999999"
     bordercolor="#666666"
     borderopacity="1.0"
     inkscape:pageopacity="1"
     inkscape:pageshadow="2"
     inkscape:cx="39.870539"
     inkscape:cy="54.117093"
     inkscape:zoom="8.4117267"
     inkscape:document-units="px"
     inkscape:current-layer="layer1"
     inkscape:window-width="1440"
     inkscape:window-height="842"
     inkscape:window-x="-5"
     inkscape:window-y="33"
     width="142px"
     height="121px"
     gridtolerance="10000"
     inkscape:grid-points="true"
     showgrid="true">
    <inkscape:grid
       type="xygrid"
       id="grid2465" />
  </sodipodi:namedview>
  <metadata
     id="metadata2221">
    <rdf:RDF>
      <cc:Work
         rdf:about="">
        <dc:format>image/svg+xml</dc:format>
        <dc:type
           rdf:resource="http://purl.org/dc/dcmitype/StillImage" />
      </cc:Work>
    </rdf:RDF>
  </metadata>
  <g
     inkscape:groupmode="layer"
     inkscape:label="Warstwa 1"
     id="layer1"
     transform="translate(-225.2143,-557.0049)">
    <g
       id="topleft"
       transform="matrix(0.6025666,0,0,0.6005099,283.52844,620.31164)"
       inkscape:label="#g4915"
       style="fill:url(#linearGradient3259);fill-opacity:1">
      <path
         id="path4917"
         d="M -5.78123,-42.125 C -8.3462,-42.125 -10.49998,-39.97122 -10.49998,-37.40625 L -10.49998,-37.125 L -5.499989,-37.131416 L -5.49998,-42.125 L -5.78123,-42.125 z"
         style="fill:url(#linearGradient3289);fill-opacity:1;fill-rule:nonzero;stroke:none;stroke-width:1;stroke-linecap:butt;stroke-linejoin:miter;marker:none;marker-start:none;marker-mid:none;marker-end:none;stroke-miterlimit:4;stroke-dasharray:none;stroke-dashoffset:0;stroke-opacity:1;visibility:visible;display:inline;overflow:visible"
         sodipodi:nodetypes="cccccc" />
      <path
         sodipodi:type="arc"
         style="opacity:1;fill:#000000;fill-opacity:0;stroke:none;stroke-width:1;stroke-linecap:round;stroke-linejoin:round;stroke-miterlimit:4;stroke-dasharray:none;stroke-dashoffset:0;stroke-opacity:1"
         id="path3301"
         sodipodi:cx="55"
         sodipodi:cy="41"
         sodipodi:rx="6"
         sodipodi:ry="6"
         d="M 49,41 A 6,6 0 0 1 55,35 L 55,41 z"
         transform="matrix(1.6595676,0,0,1.6652515,-96.776257,-105.42164)"
         sodipodi:start="3.1415927"
         sodipodi:end="4.712389" />
    </g>
    <g
       id="top"
       transform="matrix(1,0,0,1.5044758,285.71428,658.40023)"
       inkscape:label="#g4925"
       style="fill:url(#linearGradient3257);fill-opacity:1">
      <g
         id="g4927"
         style="fill:url(#linearGradient3299);fill-opacity:1"
         transform="translate(0,-6.0852075e-6)">
        <path
           style="fill:url(#linearGradient3295);fill-opacity:1;fill-rule:nonzero;stroke:none;stroke-width:1;stroke-linecap:butt;stroke-linejoin:miter;marker:none;marker-start:none;marker-mid:none;marker-end:none;stroke-miterlimit:4;stroke-dasharray:none;stroke-dashoffset:0;stroke-opacity:1;visibility:visible;display:inline;overflow:visible"
           d="M -5.49998,-42.13782 L -5.49998,-40.14377 L 24.50002,-40.14377 L 24.50002,-42.13782 L -5.49998,-42.13782 z"
           id="path4929" />
      </g>
      <g
         transform="translate(0,-1.9940497)"
         style="fill:#000000;fill-opacity:0"
         id="g3311">
        <path
           id="path3313"
           d="M -5.49998,-42.13782 L -5.49998,-40.14377 L 24.50002,-40.14377 L 24.50002,-42.13782 L -5.49998,-42.13782 z"
           style="fill:#000000;fill-opacity:0;fill-rule:nonzero;stroke:none;stroke-width:1;stroke-linecap:butt;stroke-linejoin:miter;marker:none;marker-start:none;marker-mid:none;marker-end:none;stroke-miterlimit:4;stroke-dasharray:none;stroke-dashoffset:0;stroke-opacity:1;visibility:visible;display:inline;overflow:visible" />
      </g>
    </g>
    <path
       inkscape:label="#path7491"
       style="opacity:1;color:black;fill:url(#linearGradient3255);fill-opacity:1;fill-rule:nonzero;stroke:none;stroke-width:1.39999998000000003;stroke-linecap:butt;stroke-linejoin:miter;marker:none;marker-start:none;marker-mid:none;marker-end:none;stroke-miterlimit:4;stroke-dashoffset:0;stroke-opacity:1;visibility:visible;display:inline;overflow:visible"
       d="M 280.21434,598.00488 L 280.21434,628.00488 L 310.21434,628.00488 L 310.21434,598.00488 L 280.21434,598.00488 z "
       id="center" />
    <g
       id="left"
       transform="matrix(1.5063833,0,0,1,293.01852,635.1427)"
       inkscape:label="#g4939"
       style="fill:url(#linearGradient3253);fill-opacity:1">
      <path
         id="path4941"
         d="M -12.483025,-7.1378 L -10.4915,-7.1378 L -10.4915,-37.1378 L -12.483025,-37.1378 L -12.483025,-7.1378 z"
         style="fill:#000000;fill-opacity:0;fill-rule:nonzero;stroke:none;stroke-width:1;stroke-linecap:butt;stroke-linejoin:miter;marker:none;marker-start:none;marker-mid:none;marker-end:none;stroke-miterlimit:4;stroke-dasharray:none;stroke-dashoffset:0;stroke-opacity:1;visibility:visible;display:inline;overflow:visible" />
      <path
         id="path4943"
         d="M -10.4915,-7.1378 L -8.5,-7.1378 L -8.5,-37.1378 L -10.4915,-37.1378 L -10.4915,-7.1378 z"
         style="fill:url(#linearGradient3287);fill-opacity:1;fill-rule:nonzero;stroke:none;stroke-width:4.00000048;stroke-linecap:butt;stroke-linejoin:miter;marker:none;stroke-miterlimit:4;stroke-dasharray:none;stroke-dashoffset:0;stroke-opacity:1;visibility:visible;display:inline;overflow:visible" />
    </g>
    <g
       id="bottomleft"
       transform="matrix(0.6000074,0,0,0.6000357,283.51435,632.28777)"
       inkscape:label="#g4969"
       style="fill:url(#linearGradient3247);fill-opacity:1">
      <path
         style="fill:url(#linearGradient3283);fill-opacity:1;fill-rule:nonzero;stroke:none;stroke-width:1;stroke-linecap:butt;stroke-linejoin:miter;marker:none;marker-start:none;marker-mid:none;marker-end:none;stroke-miterlimit:4;stroke-dasharray:none;stroke-dashoffset:0;stroke-opacity:1;visibility:visible;display:inline;overflow:visible"
         d="M -10.49996,-6.85673 C -10.49996,-4.29176 -8.34618,-2.13798 -5.78121,-2.13798 L -5.49996,-2.13798 L -5.4999785,-7.1378915 L -10.49996,-7.13798 L -10.49996,-6.85673 z"
         id="path4971"
         sodipodi:nodetypes="cccccc" />
      <path
         sodipodi:type="arc"
         style="opacity:1;fill:#000000;fill-opacity:0;stroke:none;stroke-width:1;stroke-linecap:round;stroke-linejoin:round;stroke-miterlimit:4;stroke-dasharray:none;stroke-dashoffset:0;stroke-opacity:1"
         id="path3303"
         sodipodi:cx="55"
         sodipodi:cy="41"
         sodipodi:rx="6"
         sodipodi:ry="6"
         d="M 49,41 A 6,6 0 0 1 55,35 L 55,41 z"
         transform="matrix(1.6666461,0,0,-1.6665675,-97.165551,61.191575)"
         sodipodi:start="3.1415927"
         sodipodi:end="4.712389" />
    </g>
    <g
       id="bottom"
       transform="matrix(1,0,0,1.5000624,285.7143,634.2117)"
       inkscape:label="#g4979"
       style="fill:url(#linearGradient3245);fill-opacity:1">
      <path
         id="path4981"
         d="M -5.5,-0.13786093 L -5.5,-2.1377777 L 24.5,-2.1377777 L 24.5,-0.13786093 L -5.5,-0.13786093 z"
         style="fill:#000000;fill-opacity:0;fill-rule:nonzero;stroke:none;stroke-width:1;stroke-linecap:butt;stroke-linejoin:miter;marker:none;marker-start:none;marker-mid:none;marker-end:none;stroke-miterlimit:4;stroke-dasharray:none;stroke-dashoffset:0;stroke-opacity:1;visibility:visible;display:inline;overflow:visible" />
      <path
         id="path4983"
         d="M -5.49996,-2.1377777 L -5.49996,-4.13778 L 24.50004,-4.13778 L 24.50004,-2.1377777 L -5.49996,-2.1377777 z"
         style="fill:url(#linearGradient3293);fill-opacity:1;fill-rule:nonzero;stroke:none;stroke-width:4.00000048;stroke-linecap:butt;stroke-linejoin:miter;marker:none;marker-start:none;marker-mid:none;marker-end:none;stroke-miterlimit:4;stroke-dasharray:none;stroke-dashoffset:0;stroke-opacity:1;visibility:visible;display:inline;overflow:visible" />
    </g>
    <g
       id="expander-left"
       inkscape:label="#g3233"
       transform="matrix(1.5950737,0,0,1.5950737,-120.47125,-359.41972)">
      <rect
         style="opacity:1;fill:#ffffff;fill-opacity:0.78431374;stroke:none;stroke-width:1;stroke-linecap:round;stroke-linejoin:round;stroke-miterlimit:4;stroke-dasharray:none;stroke-dashoffset:0;stroke-opacity:1"
         id="rect20006"
         width="16.308033"
         height="18.325521"
         x="40.517895"
         y="11.046873"
         transform="matrix(0.6269303,0,0,0.6269303,216.72074,574.53434)"
         rx="3.3624809"
         ry="3.3624809" />
      <path
         transform="matrix(1.3264574,0,0,1.3264574,231.72894,528.19454)"
         d="M 17.300086,44.527916 A 5.4656863,5.4656863 0 1 1 6.3687129,44.527916 A 5.4656863,5.4656863 0 1 1 17.300086,44.527916 z"
         sodipodi:ry="5.4656863"
         sodipodi:rx="5.4656863"
         sodipodi:cy="44.527916"
         sodipodi:cx="11.834399"
         id="path3219"
         style="opacity:1;fill:#000000;fill-opacity:0;stroke:none;stroke-width:0.47263512000000002;stroke-linecap:square;stroke-linejoin:round;stroke-miterlimit:4;stroke-dasharray:none;stroke-dashoffset:0;stroke-opacity:0.78431373000000004"
         sodipodi:type="arc" />
      <path
         sodipodi:nodetypes="ccc"
         id="path3236"
         d="M 248.53369,590.2199 L 245.4028,587.27301 L 248.53365,584.23944"
         style="fill:none;fill-rule:evenodd;stroke:#505050;stroke-width:1.88079083000000002;stroke-linecap:round;stroke-linejoin:round;stroke-miterlimit:4;stroke-dasharray:none;stroke-opacity:1" />
    </g>
    <g
       id="expander-up"
       inkscape:label="#g3233"
       transform="matrix(0,1.5950737,-1.5950737,0,1180.6739,191.77065)">
      <rect
         style="opacity:1;fill:#ffffff;fill-opacity:0.78431374;stroke:none;stroke-width:1;stroke-linecap:round;stroke-linejoin:round;stroke-miterlimit:4;stroke-dasharray:none;stroke-dashoffset:0;stroke-opacity:1"
         id="rect20008"
         width="10.224"
         height="11.488825"
         x="241.75185"
         y="581.45715"
         rx="2.108041"
         ry="2.108041" />
      <path
         transform="matrix(1.3264574,0,0,1.3264574,231.72894,528.19454)"
         d="M 17.300086,44.527916 A 5.4656863,5.4656863 0 1 1 6.3687129,44.527916 A 5.4656863,5.4656863 0 1 1 17.300086,44.527916 z"
         sodipodi:ry="5.4656863"
         sodipodi:rx="5.4656863"
         sodipodi:cy="44.527916"
         sodipodi:cx="11.834399"
         id="extender-up"
         style="opacity:1;fill:#000000;fill-opacity:0;stroke:none;stroke-width:0.47263512000000002;stroke-linecap:square;stroke-linejoin:round;stroke-miterlimit:4;stroke-dasharray:none;stroke-dashoffset:0;stroke-opacity:0.78431373999999998"
         sodipodi:type="arc"
         inkscape:label="#path3260" />
      <path
         sodipodi:nodetypes="ccc"
         id="path3240"
         d="M 248.25265,590.24183 L 245.12175,587.29495 L 248.25261,584.26137"
         style="fill:none;fill-rule:evenodd;stroke:#505050;stroke-width:1.88079083;stroke-linecap:round;stroke-linejoin:round;stroke-miterlimit:4;stroke-dasharray:none;stroke-opacity:1" />
    </g>
    <g
       transform="matrix(-1.5950737,0,0,1.5950737,638.52945,-323.24294)"
       inkscape:label="#g3233"
       id="expander-right">
      <rect
         style="opacity:1;fill:#ffffff;fill-opacity:0.78431374;stroke:none;stroke-width:1;stroke-linecap:round;stroke-linejoin:round;stroke-miterlimit:4;stroke-dasharray:none;stroke-dashoffset:0;stroke-opacity:1"
         id="rect20010"
         width="10.224"
         height="11.488825"
         x="-252.11055"
         y="581.59918"
         transform="scale(-1,1)"
         rx="2.108041"
         ry="2.108041" />
      <path
         sodipodi:type="arc"
         style="opacity:1;fill:#000000;fill-opacity:0;stroke:none;stroke-width:0.47263512000000002;stroke-linecap:square;stroke-linejoin:round;stroke-miterlimit:4;stroke-dasharray:none;stroke-dashoffset:0;stroke-opacity:0.78431373999999998"
         id="path3268"
         sodipodi:cx="11.834399"
         sodipodi:cy="44.527916"
         sodipodi:rx="5.4656863"
         sodipodi:ry="5.4656863"
         d="M 17.300086,44.527916 A 5.4656863,5.4656863 0 1 1 6.3687129,44.527916 A 5.4656863,5.4656863 0 1 1 17.300086,44.527916 z"
         transform="matrix(1.3264574,0,0,1.3264574,231.72894,528.19454)" />
      <path
         sodipodi:nodetypes="ccc"
         id="path3238"
         d="M 248.30335,590.26581 L 245.17246,587.31892 L 248.30331,584.28535"
         style="fill:none;fill-rule:evenodd;stroke:#505050;stroke-width:1.88079083;stroke-linecap:round;stroke-linejoin:round;stroke-miterlimit:4;stroke-dasharray:none;stroke-opacity:1" />
    </g>
    <g
       transform="matrix(0,-1.5950737,-1.5950737,0,1181.5578,1036.6064)"
       inkscape:label="#g3233"
       id="expander-down">
      <rect
         style="opacity:1;fill:#ffffff;fill-opacity:0.78431374;stroke:none;stroke-width:1;stroke-linecap:round;stroke-linejoin:round;stroke-miterlimit:4;stroke-dasharray:none;stroke-dashoffset:0;stroke-opacity:1"
         id="rect20012"
         width="10.224"
         height="11.488825"
         x="-251.95915"
         y="581.69513"
         transform="scale(-1,1)"
         rx="2.108041"
         ry="2.108041" />
      <path
         inkscape:label="#path3260"
         sodipodi:type="arc"
         style="opacity:1;fill:#000000;fill-opacity:0;stroke:none;stroke-width:0.47263512000000002;stroke-linecap:square;stroke-linejoin:round;stroke-miterlimit:4;stroke-dasharray:none;stroke-dashoffset:0;stroke-opacity:0.78431373999999998"
         id="path3276"
         sodipodi:cx="11.834399"
         sodipodi:cy="44.527916"
         sodipodi:rx="5.4656863"
         sodipodi:ry="5.4656863"
         d="M 17.300086,44.527916 A 5.4656863,5.4656863 0 1 1 6.3687129,44.527916 A 5.4656863,5.4656863 0 1 1 17.300086,44.527916 z"
         transform="matrix(1.3264574,0,0,1.3264574,231.72894,528.19454)" />
      <path
         sodipodi:nodetypes="ccc"
         id="path3242"
         d="M 248.16942,584.34532 L 245.03852,587.29222 L 248.16938,590.32578"
         style="fill:none;fill-rule:evenodd;stroke:#505050;stroke-width:1.88079083;stroke-linecap:round;stroke-linejoin:round;stroke-miterlimit:4;stroke-dasharray:none;stroke-opacity:1" />
    </g>
    <use
       x="0"
       y="0"
       xlink:href="#topleft"
       id="topright"
       transform="matrix(-1,0,0,1,590.4286,0)"
       width="142"
       height="121"
       inkscape:label="#use3305" />
    <use
       x="0"
       y="0"
       xlink:href="#left"
       id="right"
       transform="matrix(-1,0,0,1,590.4286,0)"
       width="142"
       height="121"
       inkscape:label="#use3307" />
    <use
       x="0"
       y="0"
       xlink:href="#bottomleft"
       id="bottomright"
       transform="matrix(-1,0,0,1,590.4286,0)"
       width="142"
       height="121"
       inkscape:label="#use3309" />
  </g>
</svg>
